1 10 20
100 200 125
201 210 89
900 1000 174
848682 209722 525
447384 516901 470
456731 685885 509
381995 32205 443
130805 320369 443
772390 997974 525
517418 251535 470
688386 319166 509
513467 237563 470
472014 549174 470
65483 85105 351
272565 1284 443
503949 12420 449
909702 293222 525
246343 517331 470
760492 613523 509
245551 207874 443
648923 702282 442
893758 30916 525
252985 543061 470
869784 25373 525
59533 387200 443
276907 266417 407
706365 308872 509
503979 696878 509
858045 569461 525
300481 130608 443
89243 804430 509
143028 998944 525
616150 907870 525
34773 895140 525
521392 280323 470
103012 170313 383
501103 515268 470
719728 754087 424
58328 589510 470
297958 636360 509
495208 574864 470
902776 201572 525
883736 406753 525
416948 260278 449
494713 717428 509
390886 583955 470
40355 52412 314
101397 656504 509
394483 795914 509
812871 63639 509
371976 603468 470
691517 944011 525
191781 266542 443
161816 683002 509
8467 235282 443
125885 409513 443
143936 958520 525
781362 934977 525
935278 61568 525
842345 949233 507
825575 67282 509
81939 411682 449
717535 196747 509
881899 536235 525
368270 92131 443
129687 451928 449
795323 710928 468
65291 859237 525
363121 271040 441
890403 509974 525
21777 461068 449
939230 133639 525
141716 990024 525
242229 583037 470
17507 74599 340
444109 796108 509
236069 457543 449
861946 523723 525
243376 8056 443
300949 274820 389
202536 962882 525
593056 675417 509
430477 342940 449
371005 517649 470
738242 171977 509
654403 146632 509
890188 916617 476
810248 958665 525
799307 700908 504
190585 691013 509
309934 724849 509
884418 76018 525
206275 416246 449
711818 384876 509
278360 524769 470
433352 7834 449
1207 283192 443
933156 279405 525
607631 948772 525
796019 67426 509
568414 466317 470
42619 987248 525
259312 510825 449
298011 294102 358
688677 204640 509
385044 754419 509
615962 267897 470
501943 468515 426
905643 337115 525
307821 386645 441
109265 939502 525
758616 227520 509
374560 278110 441
572173 126792 470
948266 886690 507
194218 35177 383
353006 755336 509
22423 612317 470
266159 320433 407
424917 473335 444
43571 809960 509
227752 178032 386
77855 248193 443
646546 501996 509
585307 472865 470
407140 213071 443
412366 165754 449
440590 305424 449
962363 531261 525
432215 910627 525
417949 144931 449
945804 289453 525
900267 486725 525
901769 684924 525
807158 845184 525
158257 369227 443
655142 386009 509
547258 251496 470
152700 712302 509
271990 738007 509
185166 679129 509
951077 116030 525
363381 910165 525
421453 325742 449
441424 853667 525
754868 377871 509
517097 219169 470
952672 428796 525
228081 344673 443
558220 744460 509
956969 106485 525
735984 903765 525
833013 889854 525
119100 698137 509
703937 777359 504
178243 871830 525
254260 275394 407
455038 962981 525
405868 27025 443
51369 330832 443
805621 47710 509
409126 529505 470
256558 361796 441
958300 484639 525
224968 516519 470
747597 700435 504
141502 2078 354
122697 493013 449
891932 241796 525
191149 595867 470
537654 887891 525
467695 791913 509
163283 441232 449
754893 87649 509
468256 324760 449
936980 273875 525
372469 346105 410
321878 147525 443
707900 280177 509
150662 451366 449
315194 898258 525
151800 975195 525
900336 274496 525
468206 792266 509
34791 659354 509
906631 572444 525
65743 892824 525
364355 229025 443
334054 637746 509
316674 320808 353
962505 253652 525
113182 853472 525
118255 435059 449
996 344654 443
5177 594848 470
702274 954704 525
465447 20670 449
722585 664891 504
874716 510590 525
209141 343257 443
508859 492254 426
707338 138522 509
945458 957799 414
391876 206078 443
982713 244380 525
490668 313884 449
525378 409595 470
7734 929354 525
346809 359234 379
771212 691133 504
543038 35057 470
268184 241381 407
646943 759982 504
627131 17857 509
621513 253069 470
704767 499210 509
570296 821159 509
670606 709624 504
775663 408421 509
878311 522363 525
851951 266015 525
435470 273111 449
846807 816616 525
380555 466938 449
460636 384344 449
415261 109415 449
715378 776395 468
440102 328535 449
106680 956545 525
495463 362558 449
637909 754717 504
531850 392871 470
431178 820322 509
415067 869938 525
222931 769658 509
158074 350084 443
593582 463740 470
516080 785400 509
764862 22603 509
652807 777730 504
838134 362121 525
187090 348955 443
948727 118803 525
365201 642859 509
227956 464256 449
36792 528000 470
199133 889430 525
920734 242192 525
367908 518958 470
895720 511960 525
179176 381887 443
88869 454434 449
1 1 1
2 1 2
5 575 144
1 837799 525
837799 837800 525
